<?xml version="1.0" encoding="UTF-8"?>
<testng-results ignored="0" total="8" passed="6" failed="1" skipped="1">
  <reporter-output>
  </reporter-output>
  <suite started-at="2020-08-19T14:09:41Z" name="All Test Suite" finished-at="2020-08-19T14:10:31Z" duration-ms="49746">
    <groups>
    </groups>
    <test started-at="2020-08-19T14:09:41Z" name="Testing TestNG" finished-at="2020-08-19T14:10:31Z" duration-ms="49746">
      <class name="com.newtopia.stepDefinitions.DriverSetup">
        <test-method is-config="true" signature="setUpDriver()[pri:0, instance:com.newtopia.stepDefinitions.DriverSetup@c8e4bb0]" started-at="2020-08-19T14:09:37Z" name="setUpDriver" finished-at="2020-08-19T14:09:41Z" duration-ms="4478" status="PASS">
          <reporter-output>
          </reporter-output>
        </test-method> <!-- setUpDriver -->
        <test-method signature="loginToSalesForce()[pri:1, instance:com.newtopia.stepDefinitions.DriverSetup@c8e4bb0]" started-at="2020-08-19T14:09:41Z" name="loginToSalesForce" description="login to the sales force website" finished-at="2020-08-19T14:09:52Z" duration-ms="10985" status="PASS">
          <reporter-output>
          </reporter-output>
        </test-method> <!-- loginToSalesForce -->
        <test-method signature="navigateToEvents()[pri:2, instance:com.newtopia.stepDefinitions.DriverSetup@c8e4bb0]" started-at="2020-08-19T14:09:52Z" name="navigateToEvents" description="open events" finished-at="2020-08-19T14:09:54Z" depends-on-methods="com.newtopia.stepDefinitions.DriverSetup.loginToSalesForce" duration-ms="1570" status="PASS">
          <reporter-output>
          </reporter-output>
        </test-method> <!-- navigateToEvents -->
        <test-method signature="createNewEvent()[pri:3, instance:com.newtopia.stepDefinitions.DriverSetup@c8e4bb0]" started-at="2020-08-19T14:09:54Z" name="createNewEvent" description="create new event" finished-at="2020-08-19T14:10:10Z" depends-on-methods="com.newtopia.stepDefinitions.DriverSetup.navigateToEvents" duration-ms="15913" status="PASS">
          <reporter-output>
          </reporter-output>
        </test-method> <!-- createNewEvent -->
        <test-method signature="getDetailsOfEditPage()[pri:4, instance:com.newtopia.stepDefinitions.DriverSetup@c8e4bb0]" started-at="2020-08-19T14:10:10Z" name="getDetailsOfEditPage" description="Navigate to the conformation page" finished-at="2020-08-19T14:10:15Z" depends-on-methods="com.newtopia.stepDefinitions.DriverSetup.createNewEvent" duration-ms="5060" status="PASS">
          <reporter-output>
          </reporter-output>
        </test-method> <!-- getDetailsOfEditPage -->
        <test-method signature="navigateToCoachingPortal()[pri:5, instance:com.newtopia.stepDefinitions.DriverSetup@c8e4bb0]" started-at="2020-08-19T14:10:15Z" name="navigateToCoachingPortal" description="Navigate Back to Coaching Portal" finished-at="2020-08-19T14:10:18Z" depends-on-methods="com.newtopia.stepDefinitions.DriverSetup.getDetailsOfEditPage" duration-ms="3158" status="PASS">
          <reporter-output>
          </reporter-output>
        </test-method> <!-- navigateToCoachingPortal -->
        <test-method signature="validateMyDayPortal()[pri:6, instance:com.newtopia.stepDefinitions.DriverSetup@c8e4bb0]" started-at="2020-08-19T14:10:18Z" name="validateMyDayPortal" description="Validate the notes in My Day portal" finished-at="2020-08-19T14:10:31Z" depends-on-methods="com.newtopia.stepDefinitions.DriverSetup.navigateToCoachingPortal" duration-ms="13008" status="PASS">
          <reporter-output>
          </reporter-output>
        </test-method> <!-- validateMyDayPortal -->
        <test-method signature="failedTest()[pri:7, instance:com.newtopia.stepDefinitions.DriverSetup@c8e4bb0]" started-at="2020-08-19T14:10:31Z" name="failedTest" description="Failed Test Case" finished-at="2020-08-19T14:10:31Z" depends-on-methods="com.newtopia.stepDefinitions.DriverSetup.navigateToCoachingPortal" duration-ms="3" status="FAIL">
          <exception class="java.lang.AssertionError">
            <message>
              <![CDATA[Test failed expected [2] but found [1]]]>
            </message>
            <full-stacktrace>
              <![CDATA[java.lang.AssertionError: Test failed expected [2] but found [1]
at org.testng.Assert.fail(Assert.java:96)
at org.testng.Assert.failNotEquals(Assert.java:776)
at org.testng.Assert.assertEqualsImpl(Assert.java:137)
at org.testng.Assert.assertEquals(Assert.java:118)
at org.testng.Assert.assertEquals(Assert.java:652)
at com.newtopia.stepDefinitions.DriverSetup.failedTest(DriverSetup.java:187)
at java.base/jdk.internal.reflect.NativeMethodAccessorImpl.invoke0(Native Method)
at java.base/jdk.internal.reflect.NativeMethodAccessorImpl.invoke(NativeMethodAccessorImpl.java:62)
at java.base/jdk.internal.reflect.DelegatingMethodAccessorImpl.invoke(DelegatingMethodAccessorImpl.java:43)
at java.base/java.lang.reflect.Method.invoke(Method.java:564)
at org.testng.internal.MethodInvocationHelper.invokeMethod(MethodInvocationHelper.java:124)
at org.testng.internal.Invoker.invokeMethod(Invoker.java:583)
at org.testng.internal.Invoker.invokeTestMethod(Invoker.java:719)
at org.testng.internal.Invoker.invokeTestMethods(Invoker.java:989)
at org.testng.internal.TestMethodWorker.invokeTestMethods(TestMethodWorker.java:125)
at org.testng.internal.TestMethodWorker.run(TestMethodWorker.java:109)
at org.testng.TestRunner.privateRun(TestRunner.java:648)
at org.testng.TestRunner.run(TestRunner.java:505)
at org.testng.SuiteRunner.runTest(SuiteRunner.java:455)
at org.testng.SuiteRunner.runSequentially(SuiteRunner.java:450)
at org.testng.SuiteRunner.privateRun(SuiteRunner.java:415)
at org.testng.SuiteRunner.run(SuiteRunner.java:364)
at org.testng.SuiteRunnerWorker.runSuite(SuiteRunnerWorker.java:52)
at org.testng.SuiteRunnerWorker.run(SuiteRunnerWorker.java:84)
at org.testng.TestNG.runSuitesSequentially(TestNG.java:1208)
at org.testng.TestNG.runSuitesLocally(TestNG.java:1137)
at org.testng.TestNG.runSuites(TestNG.java:1049)
at org.testng.TestNG.run(TestNG.java:1017)
at org.apache.maven.surefire.testng.TestNGExecutor.run(TestNGExecutor.java:284)
at org.apache.maven.surefire.testng.TestNGXmlTestSuite.execute(TestNGXmlTestSuite.java:75)
at org.apache.maven.surefire.testng.TestNGProvider.invoke(TestNGProvider.java:119)
at org.apache.maven.surefire.booter.ForkedBooter.runSuitesInProcess(ForkedBooter.java:428)
at org.apache.maven.surefire.booter.ForkedBooter.execute(ForkedBooter.java:162)
at org.apache.maven.surefire.booter.ForkedBooter.run(ForkedBooter.java:562)
at org.apache.maven.surefire.booter.ForkedBooter.main(ForkedBooter.java:548)
]]>
            </full-stacktrace>
          </exception> <!-- java.lang.AssertionError -->
          <reporter-output>
          </reporter-output>
        </test-method> <!-- failedTest -->
        <test-method signature="skippedTestCase()[pri:8, instance:com.newtopia.stepDefinitions.DriverSetup@c8e4bb0]" started-at="2020-08-19T14:10:31Z" name="skippedTestCase" description="Skipped Test" finished-at="2020-08-19T14:10:31Z" depends-on-methods="com.newtopia.stepDefinitions.DriverSetup.failedTest" duration-ms="0" status="SKIP">
          <exception class="java.lang.Throwable">
            <message>
              <![CDATA[Method DriverSetup.skippedTestCase()[pri:8, instance:com.newtopia.stepDefinitions.DriverSetup@c8e4bb0] depends on not successfully finished methods]]>
            </message>
            <full-stacktrace>
              <![CDATA[java.lang.Throwable: Method DriverSetup.skippedTestCase()[pri:8, instance:com.newtopia.stepDefinitions.DriverSetup@c8e4bb0] depends on not successfully finished methods
at org.testng.internal.Invoker.invokeTestMethods(Invoker.java:888)
at org.testng.internal.TestMethodWorker.invokeTestMethods(TestMethodWorker.java:125)
at org.testng.internal.TestMethodWorker.run(TestMethodWorker.java:109)
at org.testng.TestRunner.privateRun(TestRunner.java:648)
at org.testng.TestRunner.run(TestRunner.java:505)
at org.testng.SuiteRunner.runTest(SuiteRunner.java:455)
at org.testng.SuiteRunner.runSequentially(SuiteRunner.java:450)
at org.testng.SuiteRunner.privateRun(SuiteRunner.java:415)
at org.testng.SuiteRunner.run(SuiteRunner.java:364)
at org.testng.SuiteRunnerWorker.runSuite(SuiteRunnerWorker.java:52)
at org.testng.SuiteRunnerWorker.run(SuiteRunnerWorker.java:84)
at org.testng.TestNG.runSuitesSequentially(TestNG.java:1208)
at org.testng.TestNG.runSuitesLocally(TestNG.java:1137)
at org.testng.TestNG.runSuites(TestNG.java:1049)
at org.testng.TestNG.run(TestNG.java:1017)
at org.apache.maven.surefire.testng.TestNGExecutor.run(TestNGExecutor.java:284)
at org.apache.maven.surefire.testng.TestNGXmlTestSuite.execute(TestNGXmlTestSuite.java:75)
at org.apache.maven.surefire.testng.TestNGProvider.invoke(TestNGProvider.java:119)
at org.apache.maven.surefire.booter.ForkedBooter.runSuitesInProcess(ForkedBooter.java:428)
at org.apache.maven.surefire.booter.ForkedBooter.execute(ForkedBooter.java:162)
at org.apache.maven.surefire.booter.ForkedBooter.run(ForkedBooter.java:562)
at org.apache.maven.surefire.booter.ForkedBooter.main(ForkedBooter.java:548)
]]>
            </full-stacktrace>
          </exception> <!-- java.lang.Throwable -->
          <reporter-output>
          </reporter-output>
        </test-method> <!-- skippedTestCase -->
        <test-method is-config="true" signature="afterSuite()[pri:0, instance:com.newtopia.stepDefinitions.DriverSetup@c8e4bb0]" started-at="2020-08-19T14:10:31Z" name="afterSuite" finished-at="2020-08-19T14:10:35Z" duration-ms="3190" status="PASS">
          <reporter-output>
          </reporter-output>
        </test-method> <!-- afterSuite -->
      </class> <!-- com.newtopia.stepDefinitions.DriverSetup -->
    </test> <!-- Testing TestNG -->
  </suite> <!-- All Test Suite -->
</testng-results>
